<svg xmlns="http://www.w3.org/2000/svg" width="30.445" height="32.949" viewBox="0 0 30.445 32.949">
  <g id="strawberry" transform="translate(-19.458)">
    <path id="Tracé_3" data-name="Tracé 3" d="M254.107,16.643a10.541,10.541,0,0,1-1.172.309,7.208,7.208,0,0,1-.378-1.424,6.859,6.859,0,0,1,3.787-7.56q.36-.2.762-.38a.9.9,0,0,1,1.248.633c.052.245.1.526.144.834C258.805,11.364,258.563,15.176,254.107,16.643Z" transform="translate(-217.989 -7.025)" fill="#368b4c"/>
    <path id="Tracé_4" data-name="Tracé 4" d="M252.557,22.21a6.859,6.859,0,0,1,3.787-7.56q.015.091.027.186C256.664,17.041,256.457,20.616,252.557,22.21Z" transform="translate(-217.989 -13.707)" fill="#3fa45a"/>
    <path id="Tracé_5" data-name="Tracé 5" d="M37.413,179.445c-3.242,5.521-8.048,3.48-10.011,2.311a.9.9,0,0,1-.2-1.385,10.821,10.821,0,0,1,.987-.931,6.978,6.978,0,0,1,8.874-.266C37.291,179.338,37.413,179.445,37.413,179.445Z" transform="translate(-7.022 -166.258)" fill="#368b4c"/>
    <path id="Tracé_6" data-name="Tracé 6" d="M54.928,179.175c-3.1,3.154-6.933,1.489-8.632.476a.881.881,0,0,1-.242-.211A6.978,6.978,0,0,1,54.928,179.175Z" transform="translate(-24.884 -166.258)" fill="#3fa45a"/>
    <path id="Tracé_7" data-name="Tracé 7" d="M78.983,124.09c-5.3,3.6-8.763-.311-10.034-2.21a.9.9,0,0,1,.417-1.335,10.88,10.88,0,0,1,1.166-.385,6.865,6.865,0,0,1,7.888,2.94A6.757,6.757,0,0,1,78.983,124.09Z" transform="translate(-46.164 -112.15)" fill="#4cba68"/>
    <path id="Tracé_8" data-name="Tracé 8" d="M103.639,123.1c-3.968,1.509-6.663-1.234-7.888-2.94A6.865,6.865,0,0,1,103.639,123.1Z" transform="translate(-71.383 -112.149)" fill="#64c37d"/>
    <path id="Tracé_9" data-name="Tracé 9" d="M196.109,30.179c5.1-3.873,2.5-8.4,1.109-10.215a.9.9,0,0,0-1.4-.031,10.893,10.893,0,0,0-.737.982,6.865,6.865,0,0,0,.268,8.414A6.743,6.743,0,0,0,196.109,30.179Z" transform="translate(-163.09 -18.352)" fill="#4cba68"/>
    <path id="Tracé_10" data-name="Tracé 10" d="M195.351,48.246c2.7-3.278.958-6.708-.268-8.414A6.866,6.866,0,0,0,195.351,48.246Z" transform="translate(-163.09 -37.269)" fill="#64c37d"/>
    <path id="Tracé_11" data-name="Tracé 11" d="M141.932,136.673a4.51,4.51,0,0,1-4.608,2.947c-7.007-.57-13.335-5.044-13.335-5.044-5.043-3.347-5.67-10.614-1.192-13.819l.153-.109,3.269-2.341,3.422-2.449c4.478-3.2,11.166-.271,12.7,5.585A25.354,25.354,0,0,1,141.932,136.673Z" transform="translate(-93.875 -107.17)" fill="#c70024"/>
    <path id="Tracé_12" data-name="Tracé 12" d="M169.337,136.673a4.493,4.493,0,0,1-.246.554,4.513,4.513,0,0,1-2.478.508c-7.007-.57-13.335-5.044-13.335-5.044-4.252-2.823-5.365-8.431-2.924-12.043l3.269-2.341,3.422-2.449c4.478-3.2,11.166-.271,12.7,5.585A25.355,25.355,0,0,1,169.337,136.673Z" transform="translate(-121.28 -107.17)" fill="#ff0c38"/>
    <ellipse id="Ellipse_3" data-name="Ellipse 3" cx="0.581" cy="1.046" rx="0.581" ry="1.046" transform="translate(31.223 21.858) rotate(144.409)"/>
    <ellipse id="Ellipse_4" data-name="Ellipse 4" cx="0.581" cy="1.046" rx="0.581" ry="1.046" transform="translate(31.187 15.499) rotate(-35.591)"/>
    <ellipse id="Ellipse_5" data-name="Ellipse 5" cx="0.581" cy="1.046" rx="0.581" ry="1.046" transform="translate(38.572 19.95) rotate(144.409)"/>
    <ellipse id="Ellipse_6" data-name="Ellipse 6" cx="0.581" cy="1.046" rx="0.581" ry="1.046" transform="translate(43.853 10.999) rotate(-35.591)"/>
    <ellipse id="Ellipse_7" data-name="Ellipse 7" cx="1.046" cy="0.581" rx="1.046" ry="0.581" transform="translate(43.495 19.161) rotate(-125.591)"/>
    <ellipse id="Ellipse_8" data-name="Ellipse 8" cx="0.581" cy="1.046" rx="0.581" ry="1.046" transform="translate(47.711 23.935) rotate(144.409)"/>
    <ellipse id="Ellipse_9" data-name="Ellipse 9" cx="0.581" cy="1.046" rx="0.581" ry="1.046" transform="translate(38.383 25.817) rotate(-35.591)"/>
    <ellipse id="Ellipse_10" data-name="Ellipse 10" cx="0.581" cy="1.046" rx="0.581" ry="1.046" transform="translate(43.416 28.512) rotate(-35.591)"/>
    <ellipse id="Ellipse_11" data-name="Ellipse 11" cx="0.581" cy="1.046" rx="0.581" ry="1.046" transform="translate(31.767 25.874) rotate(-35.591)"/>
    <ellipse id="Ellipse_12" data-name="Ellipse 12" cx="0.581" cy="1.046" rx="0.581" ry="1.046" transform="translate(37.631 11.826) rotate(-35.591)"/>
    <path id="Tracé_13" data-name="Tracé 13" d="M143.285,344.354a.483.483,0,0,0-.518.446,22.291,22.291,0,0,1-1.264,6,4.044,4.044,0,0,1-3.787,2.644c-.109,0-.22,0-.329-.013-6.788-.552-13.034-4.912-13.1-4.956l-.012-.008a8.978,8.978,0,0,1-3.524-4.566.483.483,0,0,0-.915.311,9.946,9.946,0,0,0,3.9,5.057,31.741,31.741,0,0,0,4.1,2.344,27.777,27.777,0,0,0,9.466,2.782c.135.011.272.017.407.017a5.012,5.012,0,0,0,4.694-3.279,23.266,23.266,0,0,0,1.321-6.258A.484.484,0,0,0,143.285,344.354Z" transform="translate(-93.9 -321.46)"/>
    <path id="Tracé_14" data-name="Tracé 14" d="M26.03,21.191a.483.483,0,0,0,.424-.536,8.336,8.336,0,0,1-.057-.962,7.436,7.436,0,0,1,.586-2.938,6.67,6.67,0,0,1,2.381-2.89l.032-.022h0l0,0,0,0h0l6.644-4.756c4.2-3.011,10.5-.21,11.947,5.314a28.105,28.105,0,0,1,.942,7.048.483.483,0,0,0,.967,0,29.1,29.1,0,0,0-.974-7.291A9.638,9.638,0,0,0,40.278,6.9,6.947,6.947,0,0,0,41,4.588a.483.483,0,0,0-.958-.132,5.719,5.719,0,0,1-.907,2.471,7.539,7.539,0,0,0-2.754.818q.053-.263.083-.53a.483.483,0,1,0-.96-.108,5.032,5.032,0,0,1-.392,1.455L32.489,10.44c-.157-.219-.284-.372-.329-.429a6.567,6.567,0,0,1-1.019-3.406A7.324,7.324,0,0,1,33.1,1.888a.4.4,0,0,1,.314-.145.414.414,0,0,1,.331.163,10.1,10.1,0,0,1,1.081,1.751,7.442,7.442,0,0,1,.584,1.681.483.483,0,1,0,.946-.2,8.161,8.161,0,0,0-.438-1.4A7.715,7.715,0,0,1,39.315,1a.405.405,0,0,1,.168-.037.418.418,0,0,1,.407.33,10.573,10.573,0,0,1,.2,1.334.483.483,0,0,0,.963-.077A11.548,11.548,0,0,0,40.836,1.1,1.389,1.389,0,0,0,39.484,0a1.366,1.366,0,0,0-.568.123,9,9,0,0,0-3.48,2.608,11.381,11.381,0,0,0-.923-1.412,1.382,1.382,0,0,0-2.152-.055,8.257,8.257,0,0,0-2.186,5.342,6.711,6.711,0,0,0,.041.729L28.087,4.361a.483.483,0,1,0-.786.563l2.087,2.916a7.956,7.956,0,0,0-6.362.106A1.381,1.381,0,0,0,22.384,10a11.373,11.373,0,0,0,1.041,1.33,9.029,9.029,0,0,0-3.594,2.453,1.382,1.382,0,0,0,.3,2.131,11.451,11.451,0,0,0,1.315.673.483.483,0,0,0,.383-.887,10.5,10.5,0,0,1-1.2-.617.412.412,0,0,1-.2-.359.4.4,0,0,1,.111-.28A7.757,7.757,0,0,1,24.213,12.1a6.869,6.869,0,0,0,3.642,1.739,7.543,7.543,0,0,0-1.679,2.348,5.711,5.711,0,0,1-2.6.058.483.483,0,1,0-.184.949,7.415,7.415,0,0,0,1.4.139h0a6.548,6.548,0,0,0,.982-.073,8.6,8.6,0,0,0-.343,2.429,9.271,9.271,0,0,0,.063,1.074A.483.483,0,0,0,26.03,21.191Zm-.482-9.271a7.819,7.819,0,0,1-1.05-.868,10.215,10.215,0,0,1-1.312-1.59.413.413,0,0,1-.05-.356.405.405,0,0,1,.242-.26,8.648,8.648,0,0,1,3.142-.652,6.122,6.122,0,0,1,4.7,2.2l.367.514c.028.041.057.082.085.121l-2.623,1.878A5.284,5.284,0,0,1,25.548,11.92Z" transform="translate(0)"/>
    <path id="Tracé_15" data-name="Tracé 15" d="M173.982,215.041h0Z" transform="translate(-144.58 -201.202)"/>
    <path id="Tracé_16" data-name="Tracé 16" d="M173.886,215.107Z" transform="translate(-144.49 -201.264)"/>
    <path id="Tracé_17" data-name="Tracé 17" d="M173.894,215.105h0Z" transform="translate(-144.498 -201.262)"/>
  </g>
</svg>
